(kicad_symbol_lib (version 20201005) (generator kicad_symbol_editor)
  (symbol "RF_GPS:L80-R" (in_bom yes) (on_board yes)
    (property "Reference" "U" (id 0) (at -10.16 11.43 0)
      (effects (font (size 1.27 1.27)) (justify left))
    )
    (property "Value" "L80-R" (id 1) (at 10.16 11.43 0)
      (effects (font (size 1.27 1.27)) (justify right))
    )
    (property "Footprint" "RF_GPS:Quectel_L80-R" (id 2) (at 0 -22.86 0)
      (effects (font (size 1.27 1.27)) hide)
    )
    (property "Datasheet" "https://www.quectel.com/UploadImage/Downlad/Quectel_L80-R_Hardware_Design_V1.2.pdf" (id 3) (at 0 0 0)
      (effects (font (size 1.27 1.27)) hide)
    )
    (property "ki_keywords" "quectel GPS GNSS module" (id 4) (at 0 0 0)
      (effects (font (size 1.27 1.27)) hide)
    )
    (property "ki_description" "Quectel GPS Module" (id 5) (at 0 0 0)
      (effects (font (size 1.27 1.27)) hide)
    )
    (property "ki_fp_filters" "Quectel*L80*R*" (id 6) (at 0 0 0)
      (effects (font (size 1.27 1.27)) hide)
    )
    (symbol "L80-R_0_1"
      (rectangle (start -10.16 10.16) (end 10.16 -10.16)
        (stroke (width 0.254)) (fill (type background))
      )
    )
    (symbol "L80-R_1_1"
      (pin input line (at 12.7 2.54 180) (length 2.54)
        (name "RXD1" (effects (font (size 1.27 1.27))))
        (number "1" (effects (font (size 1.27 1.27))))
      )
      (pin input line (at 12.7 -5.08 180) (length 2.54)
        (name "~RESET" (effects (font (size 1.27 1.27))))
        (number "10" (effects (font (size 1.27 1.27))))
      )
      (pin passive line (at -12.7 -2.54 0) (length 2.54)
        (name "RESERVED" (effects (font (size 1.27 1.27))))
        (number "11" (effects (font (size 1.27 1.27))))
      )
      (pin passive line (at 0 -12.7 90) (length 2.54) hide
        (name "GND" (effects (font (size 1.27 1.27))))
        (number "12" (effects (font (size 1.27 1.27))))
      )
      (pin output line (at 12.7 5.08 180) (length 2.54)
        (name "TXD1" (effects (font (size 1.27 1.27))))
        (number "2" (effects (font (size 1.27 1.27))))
      )
      (pin power_in line (at 0 -12.7 90) (length 2.54)
        (name "GND" (effects (font (size 1.27 1.27))))
        (number "3" (effects (font (size 1.27 1.27))))
      )
      (pin power_in line (at -2.54 12.7 270) (length 2.54)
        (name "VCC" (effects (font (size 1.27 1.27))))
        (number "4" (effects (font (size 1.27 1.27))))
      )
      (pin power_in line (at 2.54 12.7 270) (length 2.54)
        (name "V_BCKP" (effects (font (size 1.27 1.27))))
        (number "5" (effects (font (size 1.27 1.27))))
      )
      (pin output line (at 12.7 -2.54 180) (length 2.54)
        (name "1PPS" (effects (font (size 1.27 1.27))))
        (number "6" (effects (font (size 1.27 1.27))))
      )
      (pin passive line (at -12.7 2.54 0) (length 2.54)
        (name "RESERVED" (effects (font (size 1.27 1.27))))
        (number "7" (effects (font (size 1.27 1.27))))
      )
      (pin passive line (at -12.7 0 0) (length 2.54)
        (name "RESERVED" (effects (font (size 1.27 1.27))))
        (number "8" (effects (font (size 1.27 1.27))))
      )
      (pin no_connect line (at 10.16 0 180) (length 2.54) hide
        (name "NC" (effects (font (size 1.27 1.27))))
        (number "9" (effects (font (size 1.27 1.27))))
      )
    )
  )
  (symbol "RF_GPS:LEA-M8F" (in_bom yes) (on_board yes)
    (property "Reference" "U" (id 0) (at -13.97 29.21 0)
      (effects (font (size 1.27 1.27)))
    )
    (property "Value" "LEA-M8F" (id 1) (at 13.97 29.21 0)
      (effects (font (size 1.27 1.27)))
    )
    (property "Footprint" "RF_GPS:ublox_LEA" (id 2) (at 10.16 -29.21 0)
      (effects (font (size 1.27 1.27)) hide)
    )
    (property "Datasheet" "https://www.u-blox.com/sites/default/files/products/documents/LEA-M8F_DataSheet_%28UBX-14001772%29.pdf" (id 3) (at 0 0 0)
      (effects (font (size 1.27 1.27)) hide)
    )
    (property "ki_keywords" "ublox GPS GNSS module" (id 4) (at 0 0 0)
      (effects (font (size 1.27 1.27)) hide)
    )
    (property "ki_description" "GNSS Module LEA M8, VCC 3V to 3.6V" (id 5) (at 0 0 0)
      (effects (font (size 1.27 1.27)) hide)
    )
    (property "ki_fp_filters" "ublox*LEA*" (id 6) (at 0 0 0)
      (effects (font (size 1.27 1.27)) hide)
    )
    (symbol "LEA-M8F_0_1"
      (rectangle (start -15.24 27.94) (end 15.24 -27.94)
        (stroke (width 0.254)) (fill (type background))
      )
    )
    (symbol "LEA-M8F_1_1"
      (pin bidirectional line (at -17.78 5.08 0) (length 2.54)
        (name "SDA2/~SPI_CS" (effects (font (size 1.27 1.27))))
        (number "1" (effects (font (size 1.27 1.27))))
      )
      (pin input line (at -17.78 -22.86 0) (length 2.54)
        (name "~RESET" (effects (font (size 1.27 1.27))))
        (number "10" (effects (font (size 1.27 1.27))))
      )
      (pin power_in line (at -5.08 30.48 270) (length 2.54)
        (name "V_BCKP" (effects (font (size 1.27 1.27))))
        (number "11" (effects (font (size 1.27 1.27))))
      )
      (pin input line (at -17.78 -20.32 0) (length 2.54)
        (name "~SAFEBOOT" (effects (font (size 1.27 1.27))))
        (number "12" (effects (font (size 1.27 1.27))))
      )
      (pin passive line (at 0 -30.48 90) (length 2.54) hide
        (name "GND" (effects (font (size 1.27 1.27))))
        (number "13" (effects (font (size 1.27 1.27))))
      )
      (pin passive line (at 0 -30.48 90) (length 2.54) hide
        (name "GND" (effects (font (size 1.27 1.27))))
        (number "14" (effects (font (size 1.27 1.27))))
      )
      (pin passive line (at 0 -30.48 90) (length 2.54) hide
        (name "GND" (effects (font (size 1.27 1.27))))
        (number "15" (effects (font (size 1.27 1.27))))
      )
      (pin input line (at 17.78 0 180) (length 2.54)
        (name "RF_IN" (effects (font (size 1.27 1.27))))
        (number "16" (effects (font (size 1.27 1.27))))
      )
      (pin passive line (at 0 -30.48 90) (length 2.54) hide
        (name "GND" (effects (font (size 1.27 1.27))))
        (number "17" (effects (font (size 1.27 1.27))))
      )
      (pin power_out line (at 7.62 30.48 270) (length 2.54)
        (name "VCC_RF" (effects (font (size 1.27 1.27))))
        (number "18" (effects (font (size 1.27 1.27))))
      )
      (pin power_in line (at 5.08 30.48 270) (length 2.54)
        (name "V_ANT" (effects (font (size 1.27 1.27))))
        (number "19" (effects (font (size 1.27 1.27))))
      )
      (pin input line (at -17.78 2.54 0) (length 2.54)
        (name "SCL2/SPI_CLK" (effects (font (size 1.27 1.27))))
        (number "2" (effects (font (size 1.27 1.27))))
      )
      (pin no_connect line (at 15.24 2.54 180) (length 2.54) hide
        (name "RESERVED" (effects (font (size 1.27 1.27))))
        (number "20" (effects (font (size 1.27 1.27))))
      )
      (pin input line (at -17.78 -10.16 0) (length 2.54)
        (name "FREQ_PHASE_IN1" (effects (font (size 1.27 1.27))))
        (number "21" (effects (font (size 1.27 1.27))))
      )
      (pin bidirectional line (at -17.78 -2.54 0) (length 2.54)
        (name "SDA_DAC" (effects (font (size 1.27 1.27))))
        (number "22" (effects (font (size 1.27 1.27))))
      )
      (pin output line (at -17.78 -5.08 0) (length 2.54)
        (name "SCL_DAC" (effects (font (size 1.27 1.27))))
        (number "23" (effects (font (size 1.27 1.27))))
      )
      (pin power_in line (at 0 30.48 270) (length 2.54)
        (name "VDD_USB" (effects (font (size 1.27 1.27))))
        (number "24" (effects (font (size 1.27 1.27))))
      )
      (pin bidirectional line (at -17.78 20.32 0) (length 2.54)
        (name "USB_DM" (effects (font (size 1.27 1.27))))
        (number "25" (effects (font (size 1.27 1.27))))
      )
      (pin bidirectional line (at -17.78 17.78 0) (length 2.54)
        (name "USB_DP" (effects (font (size 1.27 1.27))))
        (number "26" (effects (font (size 1.27 1.27))))
      )
      (pin input line (at -17.78 -12.7 0) (length 2.54)
        (name "FREQ_PHASE_IN0" (effects (font (size 1.27 1.27))))
        (number "27" (effects (font (size 1.27 1.27))))
      )
      (pin bidirectional line (at -17.78 -17.78 0) (length 2.54)
        (name "TIMEPULSE/TP2/~SAFEBOOT" (effects (font (size 1.27 1.27))))
        (number "28" (effects (font (size 1.27 1.27))))
      )
      (pin output line (at -17.78 12.7 0) (length 2.54)
        (name "TxD1/SPI_MISO" (effects (font (size 1.27 1.27))))
        (number "3" (effects (font (size 1.27 1.27))))
      )
      (pin input line (at -17.78 10.16 0) (length 2.54)
        (name "RxD1/SPI_MOSI" (effects (font (size 1.27 1.27))))
        (number "4" (effects (font (size 1.27 1.27))))
      )
      (pin input line (at -17.78 -25.4 0) (length 2.54)
        (name "D_SEL" (effects (font (size 1.27 1.27))))
        (number "5" (effects (font (size 1.27 1.27))))
      )
      (pin power_in line (at -7.62 30.48 270) (length 2.54)
        (name "VCC" (effects (font (size 1.27 1.27))))
        (number "6" (effects (font (size 1.27 1.27))))
      )
      (pin power_in line (at 0 -30.48 90) (length 2.54)
        (name "GND" (effects (font (size 1.27 1.27))))
        (number "7" (effects (font (size 1.27 1.27))))
      )
      (pin power_out line (at -2.54 30.48 270) (length 2.54)
        (name "VCC_OUT" (effects (font (size 1.27 1.27))))
        (number "8" (effects (font (size 1.27 1.27))))
      )
      (pin output line (at 17.78 -7.62 180) (length 2.54)
        (name "REF_FREQ_OUT" (effects (font (size 1.27 1.27))))
        (number "9" (effects (font (size 1.27 1.27))))
      )
    )
  )
  (symbol "RF_GPS:LEA-M8S" (in_bom yes) (on_board yes)
    (property "Reference" "U" (id 0) (at -11.43 24.13 0)
      (effects (font (size 1.27 1.27)))
    )
    (property "Value" "LEA-M8S" (id 1) (at 12.7 24.13 0)
      (effects (font (size 1.27 1.27)))
    )
    (property "Footprint" "RF_GPS:ublox_LEA" (id 2) (at 10.16 -24.13 0)
      (effects (font (size 1.27 1.27)) hide)
    )
    (property "Datasheet" "https://www.u-blox.com/sites/default/files/LEA-M8S-FW3_DataSheet_%28UBX-16010205%29.pdf" (id 3) (at 0 -2.54 0)
      (effects (font (size 1.27 1.27)) hide)
    )
    (property "ki_keywords" "ublox GPS GNSS module" (id 4) (at 0 0 0)
      (effects (font (size 1.27 1.27)) hide)
    )
    (property "ki_description" "GNSS Module LEA M8, VCC 2.7V to 3.6V" (id 5) (at 0 0 0)
      (effects (font (size 1.27 1.27)) hide)
    )
    (property "ki_fp_filters" "ublox*LEA*" (id 6) (at 0 0 0)
      (effects (font (size 1.27 1.27)) hide)
    )
    (symbol "LEA-M8S_0_1"
      (rectangle (start -12.7 22.86) (end 12.7 -22.86)
        (stroke (width 0.254)) (fill (type background))
      )
    )
    (symbol "LEA-M8S_1_1"
      (pin bidirectional line (at -15.24 -2.54 0) (length 2.54)
        (name "SDA" (effects (font (size 1.27 1.27))))
        (number "1" (effects (font (size 1.27 1.27))))
      )
      (pin input line (at -15.24 -20.32 0) (length 2.54)
        (name "~RESET" (effects (font (size 1.27 1.27))))
        (number "10" (effects (font (size 1.27 1.27))))
      )
      (pin power_in line (at -5.08 25.4 270) (length 2.54)
        (name "V_BCKP" (effects (font (size 1.27 1.27))))
        (number "11" (effects (font (size 1.27 1.27))))
      )
      (pin input line (at -15.24 -17.78 0) (length 2.54)
        (name "~SAFEBOOT" (effects (font (size 1.27 1.27))))
        (number "12" (effects (font (size 1.27 1.27))))
      )
      (pin passive line (at 0 -25.4 90) (length 2.54) hide
        (name "GND" (effects (font (size 1.27 1.27))))
        (number "13" (effects (font (size 1.27 1.27))))
      )
      (pin passive line (at 0 -25.4 90) (length 2.54) hide
        (name "GND" (effects (font (size 1.27 1.27))))
        (number "14" (effects (font (size 1.27 1.27))))
      )
      (pin passive line (at 0 -25.4 90) (length 2.54) hide
        (name "GND" (effects (font (size 1.27 1.27))))
        (number "15" (effects (font (size 1.27 1.27))))
      )
      (pin input line (at 15.24 0 180) (length 2.54)
        (name "RF_IN" (effects (font (size 1.27 1.27))))
        (number "16" (effects (font (size 1.27 1.27))))
      )
      (pin passive line (at 0 -25.4 90) (length 2.54) hide
        (name "GND" (effects (font (size 1.27 1.27))))
        (number "17" (effects (font (size 1.27 1.27))))
      )
      (pin power_out line (at 7.62 25.4 270) (length 2.54)
        (name "VCC_RF" (effects (font (size 1.27 1.27))))
        (number "18" (effects (font (size 1.27 1.27))))
      )
      (pin power_in line (at 5.08 25.4 270) (length 2.54)
        (name "V_ANT" (effects (font (size 1.27 1.27))))
        (number "19" (effects (font (size 1.27 1.27))))
      )
      (pin input line (at -15.24 -5.08 0) (length 2.54)
        (name "SCL" (effects (font (size 1.27 1.27))))
        (number "2" (effects (font (size 1.27 1.27))))
      )
      (pin input line (at -15.24 -10.16 0) (length 2.54)
        (name "EXTINT1" (effects (font (size 1.27 1.27))))
        (number "20" (effects (font (size 1.27 1.27))))
      )
      (pin no_connect line (at 12.7 7.62 180) (length 2.54) hide
        (name "RESERVED" (effects (font (size 1.27 1.27))))
        (number "21" (effects (font (size 1.27 1.27))))
      )
      (pin no_connect line (at 12.7 5.08 180) (length 2.54) hide
        (name "RESERVED" (effects (font (size 1.27 1.27))))
        (number "22" (effects (font (size 1.27 1.27))))
      )
      (pin no_connect line (at 12.7 2.54 180) (length 2.54) hide
        (name "RESERVED" (effects (font (size 1.27 1.27))))
        (number "23" (effects (font (size 1.27 1.27))))
      )
      (pin power_in line (at 0 25.4 270) (length 2.54)
        (name "VDD_USB" (effects (font (size 1.27 1.27))))
        (number "24" (effects (font (size 1.27 1.27))))
      )
      (pin bidirectional line (at -15.24 12.7 0) (length 2.54)
        (name "USB_DM" (effects (font (size 1.27 1.27))))
        (number "25" (effects (font (size 1.27 1.27))))
      )
      (pin bidirectional line (at -15.24 10.16 0) (length 2.54)
        (name "USB_DP" (effects (font (size 1.27 1.27))))
        (number "26" (effects (font (size 1.27 1.27))))
      )
      (pin input line (at -15.24 -12.7 0) (length 2.54)
        (name "EXTINT0" (effects (font (size 1.27 1.27))))
        (number "27" (effects (font (size 1.27 1.27))))
      )
      (pin output line (at 15.24 -7.62 180) (length 2.54)
        (name "TIMEPULSE" (effects (font (size 1.27 1.27))))
        (number "28" (effects (font (size 1.27 1.27))))
      )
      (pin output line (at -15.24 5.08 0) (length 2.54)
        (name "TXD" (effects (font (size 1.27 1.27))))
        (number "3" (effects (font (size 1.27 1.27))))
      )
      (pin input line (at -15.24 2.54 0) (length 2.54)
        (name "RXD" (effects (font (size 1.27 1.27))))
        (number "4" (effects (font (size 1.27 1.27))))
      )
      (pin no_connect line (at 12.7 12.7 180) (length 2.54) hide
        (name "RESERVED" (effects (font (size 1.27 1.27))))
        (number "5" (effects (font (size 1.27 1.27))))
      )
      (pin power_in line (at -7.62 25.4 270) (length 2.54)
        (name "VCC" (effects (font (size 1.27 1.27))))
        (number "6" (effects (font (size 1.27 1.27))))
      )
      (pin power_in line (at 0 -25.4 90) (length 2.54)
        (name "GND" (effects (font (size 1.27 1.27))))
        (number "7" (effects (font (size 1.27 1.27))))
      )
      (pin power_out line (at -2.54 25.4 270) (length 2.54)
        (name "VCC_OUT" (effects (font (size 1.27 1.27))))
        (number "8" (effects (font (size 1.27 1.27))))
      )
      (pin no_connect line (at 12.7 10.16 180) (length 2.54) hide
        (name "RESERVED" (effects (font (size 1.27 1.27))))
        (number "9" (effects (font (size 1.27 1.27))))
      )
    )
  )
  (symbol "RF_GPS:LEA-M8T" (in_bom yes) (on_board yes)
    (property "Reference" "U" (id 0) (at -13.97 24.13 0)
      (effects (font (size 1.27 1.27)))
    )
    (property "Value" "LEA-M8T" (id 1) (at 13.97 24.13 0)
      (effects (font (size 1.27 1.27)))
    )
    (property "Footprint" "RF_GPS:ublox_LEA" (id 2) (at 10.16 -24.13 0)
      (effects (font (size 1.27 1.27)) hide)
    )
    (property "Datasheet" "https://www.u-blox.com/sites/default/files/NEO-LEA-M8T-FW3_DataSheet_%28UBX-15025193%29.pdf" (id 3) (at 0 0 0)
      (effects (font (size 1.27 1.27)) hide)
    )
    (property "ki_keywords" "ublox GPS GNSS module" (id 4) (at 0 0 0)
      (effects (font (size 1.27 1.27)) hide)
    )
    (property "ki_description" "GNSS Module LEA M8, VCC 2.7V to 3.6V" (id 5) (at 0 0 0)
      (effects (font (size 1.27 1.27)) hide)
    )
    (property "ki_fp_filters" "ublox*LEA*" (id 6) (at 0 0 0)
      (effects (font (size 1.27 1.27)) hide)
    )
    (symbol "LEA-M8T_0_1"
      (rectangle (start -15.24 22.86) (end 15.24 -22.86)
        (stroke (width 0.254)) (fill (type background))
      )
    )
    (symbol "LEA-M8T_1_1"
      (pin bidirectional line (at -17.78 0 0) (length 2.54)
        (name "SDA/~SPI_CS" (effects (font (size 1.27 1.27))))
        (number "1" (effects (font (size 1.27 1.27))))
      )
      (pin input line (at -17.78 -17.78 0) (length 2.54)
        (name "~RESET" (effects (font (size 1.27 1.27))))
        (number "10" (effects (font (size 1.27 1.27))))
      )
      (pin power_in line (at -5.08 25.4 270) (length 2.54)
        (name "V_BCKP" (effects (font (size 1.27 1.27))))
        (number "11" (effects (font (size 1.27 1.27))))
      )
      (pin bidirectional line (at -17.78 -15.24 0) (length 2.54)
        (name "TP2/~SAFEBOOT" (effects (font (size 1.27 1.27))))
        (number "12" (effects (font (size 1.27 1.27))))
      )
      (pin passive line (at 0 -25.4 90) (length 2.54) hide
        (name "GND" (effects (font (size 1.27 1.27))))
        (number "13" (effects (font (size 1.27 1.27))))
      )
      (pin passive line (at 0 -25.4 90) (length 2.54) hide
        (name "GND" (effects (font (size 1.27 1.27))))
        (number "14" (effects (font (size 1.27 1.27))))
      )
      (pin passive line (at 0 -25.4 90) (length 2.54) hide
        (name "GND" (effects (font (size 1.27 1.27))))
        (number "15" (effects (font (size 1.27 1.27))))
      )
      (pin input line (at 17.78 0 180) (length 2.54)
        (name "RF_IN" (effects (font (size 1.27 1.27))))
        (number "16" (effects (font (size 1.27 1.27))))
      )
      (pin passive line (at 0 -25.4 90) (length 2.54) hide
        (name "GND" (effects (font (size 1.27 1.27))))
        (number "17" (effects (font (size 1.27 1.27))))
      )
      (pin power_out line (at 7.62 25.4 270) (length 2.54)
        (name "VCC_RF" (effects (font (size 1.27 1.27))))
        (number "18" (effects (font (size 1.27 1.27))))
      )
      (pin power_in line (at 5.08 25.4 270) (length 2.54)
        (name "V_ANT" (effects (font (size 1.27 1.27))))
        (number "19" (effects (font (size 1.27 1.27))))
      )
      (pin input line (at -17.78 -2.54 0) (length 2.54)
        (name "SCL/SPI_CLK" (effects (font (size 1.27 1.27))))
        (number "2" (effects (font (size 1.27 1.27))))
      )
      (pin input line (at -17.78 -7.62 0) (length 2.54)
        (name "EXTINT1" (effects (font (size 1.27 1.27))))
        (number "20" (effects (font (size 1.27 1.27))))
      )
      (pin no_connect line (at 15.24 7.62 180) (length 2.54) hide
        (name "RESERVED" (effects (font (size 1.27 1.27))))
        (number "21" (effects (font (size 1.27 1.27))))
      )
      (pin no_connect line (at 15.24 5.08 180) (length 2.54) hide
        (name "RESERVED" (effects (font (size 1.27 1.27))))
        (number "22" (effects (font (size 1.27 1.27))))
      )
      (pin no_connect line (at 15.24 2.54 180) (length 2.54) hide
        (name "RESERVED" (effects (font (size 1.27 1.27))))
        (number "23" (effects (font (size 1.27 1.27))))
      )
      (pin power_in line (at 0 25.4 270) (length 2.54)
        (name "VDD_USB" (effects (font (size 1.27 1.27))))
        (number "24" (effects (font (size 1.27 1.27))))
      )
      (pin bidirectional line (at -17.78 15.24 0) (length 2.54)
        (name "USB_DM" (effects (font (size 1.27 1.27))))
        (number "25" (effects (font (size 1.27 1.27))))
      )
      (pin bidirectional line (at -17.78 12.7 0) (length 2.54)
        (name "USB_DP" (effects (font (size 1.27 1.27))))
        (number "26" (effects (font (size 1.27 1.27))))
      )
      (pin input line (at -17.78 -10.16 0) (length 2.54)
        (name "EXTINT0" (effects (font (size 1.27 1.27))))
        (number "27" (effects (font (size 1.27 1.27))))
      )
      (pin output line (at 17.78 -7.62 180) (length 2.54)
        (name "TIMEPULSE" (effects (font (size 1.27 1.27))))
        (number "28" (effects (font (size 1.27 1.27))))
      )
      (pin output line (at -17.78 7.62 0) (length 2.54)
        (name "TXD/SPI_MISO" (effects (font (size 1.27 1.27))))
        (number "3" (effects (font (size 1.27 1.27))))
      )
      (pin input line (at -17.78 5.08 0) (length 2.54)
        (name "RXD/SPI_MOSI" (effects (font (size 1.27 1.27))))
        (number "4" (effects (font (size 1.27 1.27))))
      )
      (pin input line (at -17.78 -20.32 0) (length 2.54)
        (name "D_SEL" (effects (font (size 1.27 1.27))))
        (number "5" (effects (font (size 1.27 1.27))))
      )
      (pin power_in line (at -7.62 25.4 270) (length 2.54)
        (name "VCC" (effects (font (size 1.27 1.27))))
        (number "6" (effects (font (size 1.27 1.27))))
      )
      (pin power_in line (at 0 -25.4 90) (length 2.54)
        (name "GND" (effects (font (size 1.27 1.27))))
        (number "7" (effects (font (size 1.27 1.27))))
      )
      (pin power_out line (at -2.54 25.4 270) (length 2.54)
        (name "VCC_OUT" (effects (font (size 1.27 1.27))))
        (number "8" (effects (font (size 1.27 1.27))))
      )
      (pin no_connect line (at 15.24 10.16 180) (length 2.54) hide
        (name "RESERVED" (effects (font (size 1.27 1.27))))
        (number "9" (effects (font (size 1.27 1.27))))
      )
    )
  )
  (symbol "RF_GPS:MAX-8C" (in_bom yes) (on_board yes)
    (property "Reference" "U" (id 0) (at -10.16 16.51 0)
      (effects (font (size 1.27 1.27)))
    )
    (property "Value" "MAX-8C" (id 1) (at 11.43 16.51 0)
      (effects (font (size 1.27 1.27)))
    )
    (property "Footprint" "RF_GPS:ublox_MAX" (id 2) (at 10.16 -16.51 0)
      (effects (font (size 1.27 1.27)) hide)
    )
    (property "Datasheet" "https://www.u-blox.com/sites/default/files/MAX-8_DataSheet_%28UBX-16000093%29.pdf" (id 3) (at 0 0 0)
      (effects (font (size 1.27 1.27)) hide)
    )
    (property "ki_keywords" "ublox GPS GNSS module" (id 4) (at 0 0 0)
      (effects (font (size 1.27 1.27)) hide)
    )
    (property "ki_description" "GNSS Module MAX M8, VCC 1.65V to 3.6V" (id 5) (at 0 0 0)
      (effects (font (size 1.27 1.27)) hide)
    )
    (property "ki_fp_filters" "ublox*MAX*" (id 6) (at 0 0 0)
      (effects (font (size 1.27 1.27)) hide)
    )
    (symbol "MAX-8C_0_1"
      (rectangle (start 12.7 15.24) (end -12.7 -15.24)
        (stroke (width 0.254)) (fill (type background))
      )
    )
    (symbol "MAX-8C_1_1"
      (pin power_in line (at 0 -17.78 90) (length 2.54)
        (name "GND" (effects (font (size 1.27 1.27))))
        (number "1" (effects (font (size 1.27 1.27))))
      )
      (pin passive line (at 0 -17.78 90) (length 2.54) hide
        (name "GND" (effects (font (size 1.27 1.27))))
        (number "10" (effects (font (size 1.27 1.27))))
      )
      (pin input line (at 15.24 0 180) (length 2.54)
        (name "RF_IN" (effects (font (size 1.27 1.27))))
        (number "11" (effects (font (size 1.27 1.27))))
      )
      (pin passive line (at 0 -17.78 90) (length 2.54) hide
        (name "GND" (effects (font (size 1.27 1.27))))
        (number "12" (effects (font (size 1.27 1.27))))
      )
      (pin output line (at 15.24 5.08 180) (length 2.54)
        (name "LNA_EN" (effects (font (size 1.27 1.27))))
        (number "13" (effects (font (size 1.27 1.27))))
      )
      (pin power_out line (at 5.08 17.78 270) (length 2.54)
        (name "VCC_RF" (effects (font (size 1.27 1.27))))
        (number "14" (effects (font (size 1.27 1.27))))
      )
      (pin no_connect line (at 12.7 -5.08 180) (length 2.54) hide
        (name "Reserved" (effects (font (size 1.27 1.27))))
        (number "15" (effects (font (size 1.27 1.27))))
      )
      (pin bidirectional line (at -15.24 2.54 0) (length 2.54)
        (name "SDA" (effects (font (size 1.27 1.27))))
        (number "16" (effects (font (size 1.27 1.27))))
      )
      (pin input line (at -15.24 0 0) (length 2.54)
        (name "SCL" (effects (font (size 1.27 1.27))))
        (number "17" (effects (font (size 1.27 1.27))))
      )
      (pin input line (at -15.24 -7.62 0) (length 2.54)
        (name "~SAFEBOOT" (effects (font (size 1.27 1.27))))
        (number "18" (effects (font (size 1.27 1.27))))
      )
      (pin output line (at -15.24 7.62 0) (length 2.54)
        (name "TXD" (effects (font (size 1.27 1.27))))
        (number "2" (effects (font (size 1.27 1.27))))
      )
      (pin input line (at -15.24 10.16 0) (length 2.54)
        (name "RXD" (effects (font (size 1.27 1.27))))
        (number "3" (effects (font (size 1.27 1.27))))
      )
      (pin output line (at 15.24 -7.62 180) (length 2.54)
        (name "TIMEPULSE" (effects (font (size 1.27 1.27))))
        (number "4" (effects (font (size 1.27 1.27))))
      )
      (pin input line (at -15.24 -5.08 0) (length 2.54)
        (name "EXTINT" (effects (font (size 1.27 1.27))))
        (number "5" (effects (font (size 1.27 1.27))))
      )
      (pin power_in line (at 0 17.78 270) (length 2.54)
        (name "V_BCKP" (effects (font (size 1.27 1.27))))
        (number "6" (effects (font (size 1.27 1.27))))
      )
      (pin power_in line (at -2.54 17.78 270) (length 2.54)
        (name "VCC_IO" (effects (font (size 1.27 1.27))))
        (number "7" (effects (font (size 1.27 1.27))))
      )
      (pin power_in line (at -5.08 17.78 270) (length 2.54)
        (name "VCC" (effects (font (size 1.27 1.27))))
        (number "8" (effects (font (size 1.27 1.27))))
      )
      (pin input line (at -15.24 -10.16 0) (length 2.54)
        (name "~RESET" (effects (font (size 1.27 1.27))))
        (number "9" (effects (font (size 1.27 1.27))))
      )
    )
  )
  (symbol "RF_GPS:MAX-8Q" (extends "MAX-8C")
    (property "Reference" "U" (id 0) (at -10.16 16.51 0)
      (effects (font (size 1.27 1.27)))
    )
    (property "Value" "MAX-8Q" (id 1) (at 11.43 16.51 0)
      (effects (font (size 1.27 1.27)))
    )
    (property "Footprint" "RF_GPS:ublox_MAX" (id 2) (at 10.16 -16.51 0)
      (effects (font (size 1.27 1.27)) hide)
    )
    (property "Datasheet" "https://www.u-blox.com/sites/default/files/MAX-8_DataSheet_%28UBX-16000093%29.pdf" (id 3) (at 0 0 0)
      (effects (font (size 1.27 1.27)) hide)
    )
    (property "ki_keywords" "ublox GPS GNSS module" (id 4) (at 0 0 0)
      (effects (font (size 1.27 1.27)) hide)
    )
    (property "ki_description" "GNSS Module M8, VCC 2.7V to 3.6V" (id 5) (at 0 0 0)
      (effects (font (size 1.27 1.27)) hide)
    )
    (property "ki_fp_filters" "ublox*MAX*" (id 6) (at 0 0 0)
      (effects (font (size 1.27 1.27)) hide)
    )
  )
  (symbol "RF_GPS:MAX-M8C" (extends "MAX-8C")
    (property "Reference" "U" (id 0) (at -10.16 16.51 0)
      (effects (font (size 1.27 1.27)))
    )
    (property "Value" "MAX-M8C" (id 1) (at 11.43 16.51 0)
      (effects (font (size 1.27 1.27)))
    )
    (property "Footprint" "RF_GPS:ublox_MAX" (id 2) (at 10.16 -16.51 0)
      (effects (font (size 1.27 1.27)) hide)
    )
    (property "Datasheet" "https://www.u-blox.com/sites/default/files/MAX-M8-FW3_DataSheet_%28UBX-15031506%29.pdf" (id 3) (at 0 0 0)
      (effects (font (size 1.27 1.27)) hide)
    )
    (property "ki_keywords" "ublox GPS GNSS module" (id 4) (at 0 0 0)
      (effects (font (size 1.27 1.27)) hide)
    )
    (property "ki_description" "GNSS Module MAX M8, VCC 1.65V to 3.6V" (id 5) (at 0 0 0)
      (effects (font (size 1.27 1.27)) hide)
    )
    (property "ki_fp_filters" "ublox*MAX*" (id 6) (at 0 0 0)
      (effects (font (size 1.27 1.27)) hide)
    )
  )
  (symbol "RF_GPS:MAX-M8Q" (extends "MAX-8C")
    (property "Reference" "U" (id 0) (at -10.16 16.51 0)
      (effects (font (size 1.27 1.27)))
    )
    (property "Value" "MAX-M8Q" (id 1) (at 11.43 16.51 0)
      (effects (font (size 1.27 1.27)))
    )
    (property "Footprint" "RF_GPS:ublox_MAX" (id 2) (at 10.16 -16.51 0)
      (effects (font (size 1.27 1.27)) hide)
    )
    (property "Datasheet" "https://www.u-blox.com/sites/default/files/MAX-M8-FW3_DataSheet_%28UBX-15031506%29.pdf" (id 3) (at 0 0 0)
      (effects (font (size 1.27 1.27)) hide)
    )
    (property "ki_keywords" "ublox GPS GNSS module" (id 4) (at 0 0 0)
      (effects (font (size 1.27 1.27)) hide)
    )
    (property "ki_description" "GNSS Module MAX M8, VCC 2.7V to 3.6V" (id 5) (at 0 0 0)
      (effects (font (size 1.27 1.27)) hide)
    )
    (property "ki_fp_filters" "ublox*MAX*" (id 6) (at 0 0 0)
      (effects (font (size 1.27 1.27)) hide)
    )
  )
  (symbol "RF_GPS:MAX-M8W" (in_bom yes) (on_board yes)
    (property "Reference" "U" (id 0) (at -10.16 16.51 0)
      (effects (font (size 1.27 1.27)))
    )
    (property "Value" "MAX-M8W" (id 1) (at 12.7 16.51 0)
      (effects (font (size 1.27 1.27)))
    )
    (property "Footprint" "RF_GPS:ublox_MAX" (id 2) (at 10.16 -16.51 0)
      (effects (font (size 1.27 1.27)) hide)
    )
    (property "Datasheet" "https://www.u-blox.com/sites/default/files/MAX-M8-FW3_DataSheet_%28UBX-15031506%29.pdf" (id 3) (at 0 0 0)
      (effects (font (size 1.27 1.27)) hide)
    )
    (property "ki_keywords" "ublox GPS GNSS module" (id 4) (at 0 0 0)
      (effects (font (size 1.27 1.27)) hide)
    )
    (property "ki_description" "GNSS Module MAX M8, VCC 2.7V to 3.6V" (id 5) (at 0 0 0)
      (effects (font (size 1.27 1.27)) hide)
    )
    (property "ki_fp_filters" "ublox*MAX*" (id 6) (at 0 0 0)
      (effects (font (size 1.27 1.27)) hide)
    )
    (symbol "MAX-M8W_0_1"
      (rectangle (start 12.7 15.24) (end -12.7 -15.24)
        (stroke (width 0.254)) (fill (type background))
      )
    )
    (symbol "MAX-M8W_1_1"
      (pin power_in line (at 0 -17.78 90) (length 2.54)
        (name "GND" (effects (font (size 1.27 1.27))))
        (number "1" (effects (font (size 1.27 1.27))))
      )
      (pin passive line (at 0 -17.78 90) (length 2.54) hide
        (name "GND" (effects (font (size 1.27 1.27))))
        (number "10" (effects (font (size 1.27 1.27))))
      )
      (pin input line (at 15.24 0 180) (length 2.54)
        (name "RF_IN" (effects (font (size 1.27 1.27))))
        (number "11" (effects (font (size 1.27 1.27))))
      )
      (pin passive line (at 0 -17.78 90) (length 2.54) hide
        (name "GND" (effects (font (size 1.27 1.27))))
        (number "12" (effects (font (size 1.27 1.27))))
      )
      (pin no_connect line (at 12.7 -5.08 180) (length 2.54) hide
        (name "Reserved" (effects (font (size 1.27 1.27))))
        (number "13" (effects (font (size 1.27 1.27))))
      )
      (pin power_out line (at 5.08 17.78 270) (length 2.54)
        (name "VCC_RF" (effects (font (size 1.27 1.27))))
        (number "14" (effects (font (size 1.27 1.27))))
      )
      (pin power_in line (at 2.54 17.78 270) (length 2.54)
        (name "V_ANT" (effects (font (size 1.27 1.27))))
        (number "15" (effects (font (size 1.27 1.27))))
      )
      (pin bidirectional line (at -15.24 2.54 0) (length 2.54)
        (name "SDA" (effects (font (size 1.27 1.27))))
        (number "16" (effects (font (size 1.27 1.27))))
      )
      (pin input line (at -15.24 0 0) (length 2.54)
        (name "SCL" (effects (font (size 1.27 1.27))))
        (number "17" (effects (font (size 1.27 1.27))))
      )
      (pin input line (at -15.24 -7.62 0) (length 2.54)
        (name "~SAFEBOOT" (effects (font (size 1.27 1.27))))
        (number "18" (effects (font (size 1.27 1.27))))
      )
      (pin output line (at -15.24 7.62 0) (length 2.54)
        (name "TXD" (effects (font (size 1.27 1.27))))
        (number "2" (effects (font (size 1.27 1.27))))
      )
      (pin input line (at -15.24 10.16 0) (length 2.54)
        (name "RXD" (effects (font (size 1.27 1.27))))
        (number "3" (effects (font (size 1.27 1.27))))
      )
      (pin output line (at 15.24 -7.62 180) (length 2.54)
        (name "TIMEPULSE" (effects (font (size 1.27 1.27))))
        (number "4" (effects (font (size 1.27 1.27))))
      )
      (pin input line (at -15.24 -5.08 0) (length 2.54)
        (name "EXTINT" (effects (font (size 1.27 1.27))))
        (number "5" (effects (font (size 1.27 1.27))))
      )
      (pin power_in line (at 0 17.78 270) (length 2.54)
        (name "V_BCKP" (effects (font (size 1.27 1.27))))
        (number "6" (effects (font (size 1.27 1.27))))
      )
      (pin power_in line (at -2.54 17.78 270) (length 2.54)
        (name "VCC_IO" (effects (font (size 1.27 1.27))))
        (number "7" (effects (font (size 1.27 1.27))))
      )
      (pin power_in line (at -5.08 17.78 270) (length 2.54)
        (name "VCC" (effects (font (size 1.27 1.27))))
        (number "8" (effects (font (size 1.27 1.27))))
      )
      (pin input line (at -15.24 -10.16 0) (length 2.54)
        (name "~RESET" (effects (font (size 1.27 1.27))))
        (number "9" (effects (font (size 1.27 1.27))))
      )
    )
  )
  (symbol "RF_GPS:NEO-M8M" (in_bom yes) (on_board yes)
    (property "Reference" "U" (id 0) (at -13.97 21.59 0)
      (effects (font (size 1.27 1.27)))
    )
    (property "Value" "NEO-M8M" (id 1) (at 11.43 21.59 0)
      (effects (font (size 1.27 1.27)))
    )
    (property "Footprint" "RF_GPS:ublox_NEO" (id 2) (at 10.16 -21.59 0)
      (effects (font (size 1.27 1.27)) hide)
    )
    (property "Datasheet" "https://www.u-blox.com/sites/default/files/NEO-M8-FW3_DataSheet_%28UBX-15031086%29.pdf" (id 3) (at 0 0 0)
      (effects (font (size 1.27 1.27)) hide)
    )
    (property "ki_keywords" "ublox GPS GNSS module" (id 4) (at 0 0 0)
      (effects (font (size 1.27 1.27)) hide)
    )
    (property "ki_description" "GNSS Module NEO M8, VCC 2.7V to 3.6V" (id 5) (at 0 0 0)
      (effects (font (size 1.27 1.27)) hide)
    )
    (property "ki_fp_filters" "ublox*NEO*" (id 6) (at 0 0 0)
      (effects (font (size 1.27 1.27)) hide)
    )
    (symbol "NEO-M8M_0_1"
      (rectangle (start -15.24 20.32) (end 15.24 -20.32)
        (stroke (width 0.254)) (fill (type background))
      )
    )
    (symbol "NEO-M8M_1_1"
      (pin input line (at -17.78 -12.7 0) (length 2.54)
        (name "~SAFEBOOT" (effects (font (size 1.27 1.27))))
        (number "1" (effects (font (size 1.27 1.27))))
      )
      (pin power_in line (at 0 -22.86 90) (length 2.54)
        (name "GND" (effects (font (size 1.27 1.27))))
        (number "10" (effects (font (size 1.27 1.27))))
      )
      (pin input line (at 17.78 0 180) (length 2.54)
        (name "RF_IN" (effects (font (size 1.27 1.27))))
        (number "11" (effects (font (size 1.27 1.27))))
      )
      (pin passive line (at 0 -22.86 90) (length 2.54) hide
        (name "GND" (effects (font (size 1.27 1.27))))
        (number "12" (effects (font (size 1.27 1.27))))
      )
      (pin passive line (at 0 -22.86 90) (length 2.54) hide
        (name "GND" (effects (font (size 1.27 1.27))))
        (number "13" (effects (font (size 1.27 1.27))))
      )
      (pin no_connect line (at 15.24 -10.16 180) (length 2.54) hide
        (name "RESERVED" (effects (font (size 1.27 1.27))))
        (number "14" (effects (font (size 1.27 1.27))))
      )
      (pin no_connect line (at 15.24 -12.7 180) (length 2.54) hide
        (name "RESERVED" (effects (font (size 1.27 1.27))))
        (number "15" (effects (font (size 1.27 1.27))))
      )
      (pin no_connect line (at 15.24 -15.24 180) (length 2.54) hide
        (name "RESERVED" (effects (font (size 1.27 1.27))))
        (number "16" (effects (font (size 1.27 1.27))))
      )
      (pin no_connect line (at 15.24 -17.78 180) (length 2.54) hide
        (name "RESERVED" (effects (font (size 1.27 1.27))))
        (number "17" (effects (font (size 1.27 1.27))))
      )
      (pin bidirectional line (at -17.78 0 0) (length 2.54)
        (name "SDA/~SPI_CS" (effects (font (size 1.27 1.27))))
        (number "18" (effects (font (size 1.27 1.27))))
      )
      (pin input line (at -17.78 -2.54 0) (length 2.54)
        (name "SCL/SPI_CLK" (effects (font (size 1.27 1.27))))
        (number "19" (effects (font (size 1.27 1.27))))
      )
      (pin input line (at -17.78 -17.78 0) (length 2.54)
        (name "D_SEL" (effects (font (size 1.27 1.27))))
        (number "2" (effects (font (size 1.27 1.27))))
      )
      (pin output line (at -17.78 7.62 0) (length 2.54)
        (name "TXD/SPI_MISO" (effects (font (size 1.27 1.27))))
        (number "20" (effects (font (size 1.27 1.27))))
      )
      (pin input line (at -17.78 5.08 0) (length 2.54)
        (name "RXD/SPI_MOSI" (effects (font (size 1.27 1.27))))
        (number "21" (effects (font (size 1.27 1.27))))
      )
      (pin power_in line (at -2.54 22.86 270) (length 2.54)
        (name "V_BCKP" (effects (font (size 1.27 1.27))))
        (number "22" (effects (font (size 1.27 1.27))))
      )
      (pin power_in line (at -5.08 22.86 270) (length 2.54)
        (name "VCC" (effects (font (size 1.27 1.27))))
        (number "23" (effects (font (size 1.27 1.27))))
      )
      (pin passive line (at 0 -22.86 90) (length 2.54) hide
        (name "GND" (effects (font (size 1.27 1.27))))
        (number "24" (effects (font (size 1.27 1.27))))
      )
      (pin output line (at 17.78 -7.62 180) (length 2.54)
        (name "TIMEPULSE" (effects (font (size 1.27 1.27))))
        (number "3" (effects (font (size 1.27 1.27))))
      )
      (pin input line (at -17.78 -7.62 0) (length 2.54)
        (name "EXTINT" (effects (font (size 1.27 1.27))))
        (number "4" (effects (font (size 1.27 1.27))))
      )
      (pin bidirectional line (at -17.78 15.24 0) (length 2.54)
        (name "USB_DM" (effects (font (size 1.27 1.27))))
        (number "5" (effects (font (size 1.27 1.27))))
      )
      (pin bidirectional line (at -17.78 12.7 0) (length 2.54)
        (name "USB_DP" (effects (font (size 1.27 1.27))))
        (number "6" (effects (font (size 1.27 1.27))))
      )
      (pin power_in line (at 0 22.86 270) (length 2.54)
        (name "VDD_USB" (effects (font (size 1.27 1.27))))
        (number "7" (effects (font (size 1.27 1.27))))
      )
      (pin input line (at -17.78 -15.24 0) (length 2.54)
        (name "~RESET" (effects (font (size 1.27 1.27))))
        (number "8" (effects (font (size 1.27 1.27))))
      )
      (pin power_out line (at 5.08 22.86 270) (length 2.54)
        (name "VCC_RF" (effects (font (size 1.27 1.27))))
        (number "9" (effects (font (size 1.27 1.27))))
      )
    )
  )
  (symbol "RF_GPS:NEO-M8N" (in_bom yes) (on_board yes)
    (property "Reference" "U" (id 0) (at -13.97 21.59 0)
      (effects (font (size 1.27 1.27)))
    )
    (property "Value" "NEO-M8N" (id 1) (at 11.43 21.59 0)
      (effects (font (size 1.27 1.27)))
    )
    (property "Footprint" "RF_GPS:ublox_NEO" (id 2) (at 10.16 -21.59 0)
      (effects (font (size 1.27 1.27)) hide)
    )
    (property "Datasheet" "https://www.u-blox.com/sites/default/files/NEO-M8-FW3_DataSheet_%28UBX-15031086%29.pdf" (id 3) (at 0 0 0)
      (effects (font (size 1.27 1.27)) hide)
    )
    (property "ki_keywords" "ublox GPS GNSS module" (id 4) (at 0 0 0)
      (effects (font (size 1.27 1.27)) hide)
    )
    (property "ki_description" "GNSS Module NEO M8, VCC 2.7V to 3.6V" (id 5) (at 0 0 0)
      (effects (font (size 1.27 1.27)) hide)
    )
    (property "ki_fp_filters" "ublox*NEO*" (id 6) (at 0 0 0)
      (effects (font (size 1.27 1.27)) hide)
    )
    (symbol "NEO-M8N_0_1"
      (rectangle (start -15.24 20.32) (end 15.24 -20.32)
        (stroke (width 0.254)) (fill (type background))
      )
    )
    (symbol "NEO-M8N_1_1"
      (pin input line (at -17.78 -12.7 0) (length 2.54)
        (name "~SAFEBOOT" (effects (font (size 1.27 1.27))))
        (number "1" (effects (font (size 1.27 1.27))))
      )
      (pin power_in line (at 0 -22.86 90) (length 2.54)
        (name "GND" (effects (font (size 1.27 1.27))))
        (number "10" (effects (font (size 1.27 1.27))))
      )
      (pin input line (at 17.78 0 180) (length 2.54)
        (name "RF_IN" (effects (font (size 1.27 1.27))))
        (number "11" (effects (font (size 1.27 1.27))))
      )
      (pin passive line (at 0 -22.86 90) (length 2.54) hide
        (name "GND" (effects (font (size 1.27 1.27))))
        (number "12" (effects (font (size 1.27 1.27))))
      )
      (pin passive line (at 0 -22.86 90) (length 2.54) hide
        (name "GND" (effects (font (size 1.27 1.27))))
        (number "13" (effects (font (size 1.27 1.27))))
      )
      (pin output line (at 17.78 5.08 180) (length 2.54)
        (name "LNA_EN" (effects (font (size 1.27 1.27))))
        (number "14" (effects (font (size 1.27 1.27))))
      )
      (pin no_connect line (at 15.24 -10.16 180) (length 2.54) hide
        (name "RESERVED" (effects (font (size 1.27 1.27))))
        (number "15" (effects (font (size 1.27 1.27))))
      )
      (pin no_connect line (at 15.24 -12.7 180) (length 2.54) hide
        (name "RESERVED" (effects (font (size 1.27 1.27))))
        (number "16" (effects (font (size 1.27 1.27))))
      )
      (pin no_connect line (at 15.24 -15.24 180) (length 2.54) hide
        (name "RESERVED" (effects (font (size 1.27 1.27))))
        (number "17" (effects (font (size 1.27 1.27))))
      )
      (pin bidirectional line (at -17.78 0 0) (length 2.54)
        (name "SDA/~SPI_CS" (effects (font (size 1.27 1.27))))
        (number "18" (effects (font (size 1.27 1.27))))
      )
      (pin input line (at -17.78 -2.54 0) (length 2.54)
        (name "SCL/SPI_CLK" (effects (font (size 1.27 1.27))))
        (number "19" (effects (font (size 1.27 1.27))))
      )
      (pin input line (at -17.78 -17.78 0) (length 2.54)
        (name "D_SEL" (effects (font (size 1.27 1.27))))
        (number "2" (effects (font (size 1.27 1.27))))
      )
      (pin output line (at -17.78 7.62 0) (length 2.54)
        (name "TXD/SPI_MISO" (effects (font (size 1.27 1.27))))
        (number "20" (effects (font (size 1.27 1.27))))
      )
      (pin input line (at -17.78 5.08 0) (length 2.54)
        (name "RXD/SPI_MOSI" (effects (font (size 1.27 1.27))))
        (number "21" (effects (font (size 1.27 1.27))))
      )
      (pin power_in line (at -2.54 22.86 270) (length 2.54)
        (name "V_BCKP" (effects (font (size 1.27 1.27))))
        (number "22" (effects (font (size 1.27 1.27))))
      )
      (pin power_in line (at -5.08 22.86 270) (length 2.54)
        (name "VCC" (effects (font (size 1.27 1.27))))
        (number "23" (effects (font (size 1.27 1.27))))
      )
      (pin passive line (at 0 -22.86 90) (length 2.54) hide
        (name "GND" (effects (font (size 1.27 1.27))))
        (number "24" (effects (font (size 1.27 1.27))))
      )
      (pin output line (at 17.78 -7.62 180) (length 2.54)
        (name "TIMEPULSE" (effects (font (size 1.27 1.27))))
        (number "3" (effects (font (size 1.27 1.27))))
      )
      (pin input line (at -17.78 -7.62 0) (length 2.54)
        (name "EXTINT" (effects (font (size 1.27 1.27))))
        (number "4" (effects (font (size 1.27 1.27))))
      )
      (pin bidirectional line (at -17.78 15.24 0) (length 2.54)
        (name "USB_DM" (effects (font (size 1.27 1.27))))
        (number "5" (effects (font (size 1.27 1.27))))
      )
      (pin bidirectional line (at -17.78 12.7 0) (length 2.54)
        (name "USB_DP" (effects (font (size 1.27 1.27))))
        (number "6" (effects (font (size 1.27 1.27))))
      )
      (pin power_in line (at 0 22.86 270) (length 2.54)
        (name "VDD_USB" (effects (font (size 1.27 1.27))))
        (number "7" (effects (font (size 1.27 1.27))))
      )
      (pin input line (at -17.78 -15.24 0) (length 2.54)
        (name "~RESET" (effects (font (size 1.27 1.27))))
        (number "8" (effects (font (size 1.27 1.27))))
      )
      (pin power_out line (at 5.08 22.86 270) (length 2.54)
        (name "VCC_RF" (effects (font (size 1.27 1.27))))
        (number "9" (effects (font (size 1.27 1.27))))
      )
    )
  )
  (symbol "RF_GPS:NEO-8Q" (extends "NEO-M8N")
    (property "Reference" "U" (id 0) (at -13.97 21.59 0)
      (effects (font (size 1.27 1.27)))
    )
    (property "Value" "NEO-8Q" (id 1) (at 11.43 21.59 0)
      (effects (font (size 1.27 1.27)))
    )
    (property "Footprint" "RF_GPS:ublox_NEO" (id 2) (at 10.16 -21.59 0)
      (effects (font (size 1.27 1.27)) hide)
    )
    (property "Datasheet" "https://www.u-blox.com/sites/default/files/NEO-8Q_DataSheet_%28UBX-15031913%29.pdf" (id 3) (at 0 0 0)
      (effects (font (size 1.27 1.27)) hide)
    )
    (property "ki_keywords" "ublox GPS GNSS module" (id 4) (at 0 0 0)
      (effects (font (size 1.27 1.27)) hide)
    )
    (property "ki_description" "GNSS Module NEO 8, VCC 1.65V to 3.6V" (id 5) (at 0 0 0)
      (effects (font (size 1.27 1.27)) hide)
    )
    (property "ki_fp_filters" "ublox*NEO*" (id 6) (at 0 0 0)
      (effects (font (size 1.27 1.27)) hide)
    )
  )
  (symbol "RF_GPS:NEO-M8Q" (extends "NEO-M8N")
    (property "Reference" "U" (id 0) (at -13.97 21.59 0)
      (effects (font (size 1.27 1.27)))
    )
    (property "Value" "NEO-M8Q" (id 1) (at 11.43 21.59 0)
      (effects (font (size 1.27 1.27)))
    )
    (property "Footprint" "RF_GPS:ublox_NEO" (id 2) (at 10.16 -21.59 0)
      (effects (font (size 1.27 1.27)) hide)
    )
    (property "Datasheet" "https://www.u-blox.com/sites/default/files/NEO-M8-FW3_DataSheet_%28UBX-15031086%29.pdf" (id 3) (at 0 0 0)
      (effects (font (size 1.27 1.27)) hide)
    )
    (property "ki_keywords" "ublox GPS GNSS module" (id 4) (at 0 0 0)
      (effects (font (size 1.27 1.27)) hide)
    )
    (property "ki_description" "GNSS Module NEO M8, VCC 2.7V to 3.6V" (id 5) (at 0 0 0)
      (effects (font (size 1.27 1.27)) hide)
    )
    (property "ki_fp_filters" "ublox*NEO*" (id 6) (at 0 0 0)
      (effects (font (size 1.27 1.27)) hide)
    )
  )
  (symbol "RF_GPS:NEO-M8P" (in_bom yes) (on_board yes)
    (property "Reference" "U" (id 0) (at -13.97 21.59 0)
      (effects (font (size 1.27 1.27)))
    )
    (property "Value" "NEO-M8P" (id 1) (at 11.43 21.59 0)
      (effects (font (size 1.27 1.27)))
    )
    (property "Footprint" "RF_GPS:ublox_NEO" (id 2) (at 10.16 -21.59 0)
      (effects (font (size 1.27 1.27)) hide)
    )
    (property "Datasheet" "https://www.u-blox.com/sites/default/files/NEO-M8P_DataSheet_%28UBX-15016656%29.pdf" (id 3) (at 0 0 0)
      (effects (font (size 1.27 1.27)) hide)
    )
    (property "ki_keywords" "ublox GPS GNSS RTK module" (id 4) (at 0 0 0)
      (effects (font (size 1.27 1.27)) hide)
    )
    (property "ki_description" "GNSS RTK Module NEO M8, VCC 2.7V to 3.6V" (id 5) (at 0 0 0)
      (effects (font (size 1.27 1.27)) hide)
    )
    (property "ki_fp_filters" "ublox*NEO*" (id 6) (at 0 0 0)
      (effects (font (size 1.27 1.27)) hide)
    )
    (symbol "NEO-M8P_0_1"
      (rectangle (start -15.24 20.32) (end 15.24 -20.32)
        (stroke (width 0.254)) (fill (type background))
      )
    )
    (symbol "NEO-M8P_1_1"
      (pin input line (at -17.78 -12.7 0) (length 2.54)
        (name "~SAFEBOOT" (effects (font (size 1.27 1.27))))
        (number "1" (effects (font (size 1.27 1.27))))
      )
      (pin power_in line (at 0 -22.86 90) (length 2.54)
        (name "GND" (effects (font (size 1.27 1.27))))
        (number "10" (effects (font (size 1.27 1.27))))
      )
      (pin input line (at 17.78 0 180) (length 2.54)
        (name "RF_IN" (effects (font (size 1.27 1.27))))
        (number "11" (effects (font (size 1.27 1.27))))
      )
      (pin passive line (at 0 -22.86 90) (length 2.54) hide
        (name "GND" (effects (font (size 1.27 1.27))))
        (number "12" (effects (font (size 1.27 1.27))))
      )
      (pin passive line (at 0 -22.86 90) (length 2.54) hide
        (name "GND" (effects (font (size 1.27 1.27))))
        (number "13" (effects (font (size 1.27 1.27))))
      )
      (pin output line (at 17.78 5.08 180) (length 2.54)
        (name "LNA_EN" (effects (font (size 1.27 1.27))))
        (number "14" (effects (font (size 1.27 1.27))))
      )
      (pin output line (at 17.78 -10.16 180) (length 2.54)
        (name "RTK_STAT" (effects (font (size 1.27 1.27))))
        (number "15" (effects (font (size 1.27 1.27))))
      )
      (pin output line (at 17.78 -12.7 180) (length 2.54)
        (name "GEOFENCE_STAT" (effects (font (size 1.27 1.27))))
        (number "16" (effects (font (size 1.27 1.27))))
      )
      (pin no_connect line (at 15.24 -17.78 180) (length 2.54) hide
        (name "RESERVED" (effects (font (size 1.27 1.27))))
        (number "17" (effects (font (size 1.27 1.27))))
      )
      (pin bidirectional line (at -17.78 0 0) (length 2.54)
        (name "SDA/~SPI_CS" (effects (font (size 1.27 1.27))))
        (number "18" (effects (font (size 1.27 1.27))))
      )
      (pin input line (at -17.78 -2.54 0) (length 2.54)
        (name "SCL/SPI_CLK" (effects (font (size 1.27 1.27))))
        (number "19" (effects (font (size 1.27 1.27))))
      )
      (pin input line (at -17.78 -17.78 0) (length 2.54)
        (name "D_SEL" (effects (font (size 1.27 1.27))))
        (number "2" (effects (font (size 1.27 1.27))))
      )
      (pin output line (at -17.78 7.62 0) (length 2.54)
        (name "TXD/SPI_MISO" (effects (font (size 1.27 1.27))))
        (number "20" (effects (font (size 1.27 1.27))))
      )
      (pin input line (at -17.78 5.08 0) (length 2.54)
        (name "RXD/SPI_MOSI" (effects (font (size 1.27 1.27))))
        (number "21" (effects (font (size 1.27 1.27))))
      )
      (pin power_in line (at -2.54 22.86 270) (length 2.54)
        (name "V_BCKP" (effects (font (size 1.27 1.27))))
        (number "22" (effects (font (size 1.27 1.27))))
      )
      (pin power_in line (at -5.08 22.86 270) (length 2.54)
        (name "VCC" (effects (font (size 1.27 1.27))))
        (number "23" (effects (font (size 1.27 1.27))))
      )
      (pin passive line (at 0 -22.86 90) (length 2.54) hide
        (name "GND" (effects (font (size 1.27 1.27))))
        (number "24" (effects (font (size 1.27 1.27))))
      )
      (pin output line (at 17.78 -7.62 180) (length 2.54)
        (name "TIMEPULSE" (effects (font (size 1.27 1.27))))
        (number "3" (effects (font (size 1.27 1.27))))
      )
      (pin input line (at -17.78 -7.62 0) (length 2.54)
        (name "EXTINT" (effects (font (size 1.27 1.27))))
        (number "4" (effects (font (size 1.27 1.27))))
      )
      (pin bidirectional line (at -17.78 15.24 0) (length 2.54)
        (name "USB_DM" (effects (font (size 1.27 1.27))))
        (number "5" (effects (font (size 1.27 1.27))))
      )
      (pin bidirectional line (at -17.78 12.7 0) (length 2.54)
        (name "USB_DP" (effects (font (size 1.27 1.27))))
        (number "6" (effects (font (size 1.27 1.27))))
      )
      (pin power_in line (at 0 22.86 270) (length 2.54)
        (name "VDD_USB" (effects (font (size 1.27 1.27))))
        (number "7" (effects (font (size 1.27 1.27))))
      )
      (pin input line (at -17.78 -15.24 0) (length 2.54)
        (name "~RESET" (effects (font (size 1.27 1.27))))
        (number "8" (effects (font (size 1.27 1.27))))
      )
      (pin power_out line (at 5.08 22.86 270) (length 2.54)
        (name "VCC_RF" (effects (font (size 1.27 1.27))))
        (number "9" (effects (font (size 1.27 1.27))))
      )
    )
  )
  (symbol "RF_GPS:NEO-M8T" (in_bom yes) (on_board yes)
    (property "Reference" "U" (id 0) (at -13.97 24.13 0)
      (effects (font (size 1.27 1.27)))
    )
    (property "Value" "NEO-M8T" (id 1) (at 11.43 24.13 0)
      (effects (font (size 1.27 1.27)))
    )
    (property "Footprint" "RF_GPS:ublox_NEO" (id 2) (at 10.16 -24.13 0)
      (effects (font (size 1.27 1.27)) hide)
    )
    (property "Datasheet" "https://www.u-blox.com/sites/default/files/NEO-LEA-M8T-FW3_DataSheet_%28UBX-15025193%29.pdf" (id 3) (at 0 0 0)
      (effects (font (size 1.27 1.27)) hide)
    )
    (property "ki_keywords" "ublox GPS GNSS module" (id 4) (at 0 0 0)
      (effects (font (size 1.27 1.27)) hide)
    )
    (property "ki_description" "GNSS Module NEO M8, VCC 2.7V to 3.6V" (id 5) (at 0 0 0)
      (effects (font (size 1.27 1.27)) hide)
    )
    (property "ki_fp_filters" "ublox*NEO*" (id 6) (at 0 0 0)
      (effects (font (size 1.27 1.27)) hide)
    )
    (symbol "NEO-M8T_0_1"
      (rectangle (start -15.24 22.86) (end 15.24 -22.86)
        (stroke (width 0.254)) (fill (type background))
      )
    )
    (symbol "NEO-M8T_1_1"
      (pin bidirectional line (at -17.78 -12.7 0) (length 2.54)
        (name "TP2/~SAFEBOOT" (effects (font (size 1.27 1.27))))
        (number "1" (effects (font (size 1.27 1.27))))
      )
      (pin power_in line (at 0 -25.4 90) (length 2.54)
        (name "GND" (effects (font (size 1.27 1.27))))
        (number "10" (effects (font (size 1.27 1.27))))
      )
      (pin input line (at 17.78 0 180) (length 2.54)
        (name "RF_IN" (effects (font (size 1.27 1.27))))
        (number "11" (effects (font (size 1.27 1.27))))
      )
      (pin passive line (at 0 -25.4 90) (length 2.54) hide
        (name "GND" (effects (font (size 1.27 1.27))))
        (number "12" (effects (font (size 1.27 1.27))))
      )
      (pin passive line (at 0 -25.4 90) (length 2.54) hide
        (name "GND" (effects (font (size 1.27 1.27))))
        (number "13" (effects (font (size 1.27 1.27))))
      )
      (pin output line (at 17.78 5.08 180) (length 2.54)
        (name "LNA_EN" (effects (font (size 1.27 1.27))))
        (number "14" (effects (font (size 1.27 1.27))))
      )
      (pin input line (at -17.78 -5.08 0) (length 2.54)
        (name "EXTINT1" (effects (font (size 1.27 1.27))))
        (number "15" (effects (font (size 1.27 1.27))))
      )
      (pin no_connect line (at 15.24 -10.16 180) (length 2.54) hide
        (name "RESERVED" (effects (font (size 1.27 1.27))))
        (number "16" (effects (font (size 1.27 1.27))))
      )
      (pin no_connect line (at 15.24 -12.7 180) (length 2.54) hide
        (name "RESERVED" (effects (font (size 1.27 1.27))))
        (number "17" (effects (font (size 1.27 1.27))))
      )
      (pin bidirectional line (at -17.78 2.54 0) (length 2.54)
        (name "SDA/~SPI_CS" (effects (font (size 1.27 1.27))))
        (number "18" (effects (font (size 1.27 1.27))))
      )
      (pin input line (at -17.78 0 0) (length 2.54)
        (name "SCL/SPI_CLK" (effects (font (size 1.27 1.27))))
        (number "19" (effects (font (size 1.27 1.27))))
      )
      (pin input line (at -17.78 -17.78 0) (length 2.54)
        (name "D_SEL" (effects (font (size 1.27 1.27))))
        (number "2" (effects (font (size 1.27 1.27))))
      )
      (pin output line (at -17.78 10.16 0) (length 2.54)
        (name "TXD/SPI_MISO" (effects (font (size 1.27 1.27))))
        (number "20" (effects (font (size 1.27 1.27))))
      )
      (pin input line (at -17.78 7.62 0) (length 2.54)
        (name "RXD/SPI_MOSI" (effects (font (size 1.27 1.27))))
        (number "21" (effects (font (size 1.27 1.27))))
      )
      (pin power_in line (at -2.54 25.4 270) (length 2.54)
        (name "V_BCKP" (effects (font (size 1.27 1.27))))
        (number "22" (effects (font (size 1.27 1.27))))
      )
      (pin power_in line (at -5.08 25.4 270) (length 2.54)
        (name "VCC" (effects (font (size 1.27 1.27))))
        (number "23" (effects (font (size 1.27 1.27))))
      )
      (pin passive line (at 0 -25.4 90) (length 2.54) hide
        (name "GND" (effects (font (size 1.27 1.27))))
        (number "24" (effects (font (size 1.27 1.27))))
      )
      (pin output line (at 17.78 -7.62 180) (length 2.54)
        (name "TIMEPULSE" (effects (font (size 1.27 1.27))))
        (number "3" (effects (font (size 1.27 1.27))))
      )
      (pin input line (at -17.78 -7.62 0) (length 2.54)
        (name "EXTINT0" (effects (font (size 1.27 1.27))))
        (number "4" (effects (font (size 1.27 1.27))))
      )
      (pin bidirectional line (at -17.78 17.78 0) (length 2.54)
        (name "USB_DM" (effects (font (size 1.27 1.27))))
        (number "5" (effects (font (size 1.27 1.27))))
      )
      (pin bidirectional line (at -17.78 15.24 0) (length 2.54)
        (name "USB_DP" (effects (font (size 1.27 1.27))))
        (number "6" (effects (font (size 1.27 1.27))))
      )
      (pin power_in line (at 0 25.4 270) (length 2.54)
        (name "VDD_USB" (effects (font (size 1.27 1.27))))
        (number "7" (effects (font (size 1.27 1.27))))
      )
      (pin input line (at -17.78 -15.24 0) (length 2.54)
        (name "~RESET" (effects (font (size 1.27 1.27))))
        (number "8" (effects (font (size 1.27 1.27))))
      )
      (pin power_out line (at 5.08 25.4 270) (length 2.54)
        (name "VCC_RF" (effects (font (size 1.27 1.27))))
        (number "9" (effects (font (size 1.27 1.27))))
      )
    )
  )
  (symbol "RF_GPS:RXM-GPS-RM" (in_bom yes) (on_board yes)
    (property "Reference" "U" (id 0) (at -7.62 13.97 0)
      (effects (font (size 1.27 1.27)) (justify right))
    )
    (property "Value" "RXM-GPS-RM" (id 1) (at 17.78 13.97 0)
      (effects (font (size 1.27 1.27)) (justify right))
    )
    (property "Footprint" "RF_GPS:Linx_RXM-GPS" (id 2) (at 12.7 -13.97 0)
      (effects (font (size 1.27 1.27)) hide)
    )
    (property "Datasheet" "https://linxtechnologies.com/wp/wp-content/uploads/rxm-gps-rm.pdf" (id 3) (at 7.62 -7.62 0)
      (effects (font (size 1.27 1.27)) hide)
    )
    (property "ki_keywords" "gps low-power" (id 4) (at 0 0 0)
      (effects (font (size 1.27 1.27)) hide)
    )
    (property "ki_description" "Module GPS Low Power, 14mA tracking, 22 channels" (id 5) (at 0 0 0)
      (effects (font (size 1.27 1.27)) hide)
    )
    (property "ki_fp_filters" "Linx*RXM?GPS*" (id 6) (at 0 0 0)
      (effects (font (size 1.27 1.27)) hide)
    )
    (symbol "RXM-GPS-RM_0_1"
      (rectangle (start 10.16 -12.7) (end -10.16 12.7)
        (stroke (width 0.254)) (fill (type background))
      )
    )
    (symbol "RXM-GPS-RM_1_1"
      (pin no_connect line (at -10.16 10.16 0) (length 2.54) hide
        (name "NC" (effects (font (size 1.27 1.27))))
        (number "1" (effects (font (size 1.27 1.27))))
      )
      (pin no_connect line (at 10.16 10.16 180) (length 2.54) hide
        (name "NC" (effects (font (size 1.27 1.27))))
        (number "10" (effects (font (size 1.27 1.27))))
      )
      (pin power_in line (at 2.54 15.24 270) (length 2.54)
        (name "VBCKUP" (effects (font (size 1.27 1.27))))
        (number "11" (effects (font (size 1.27 1.27))))
      )
      (pin power_in line (at -2.54 15.24 270) (length 2.54)
        (name "VCC" (effects (font (size 1.27 1.27))))
        (number "12" (effects (font (size 1.27 1.27))))
      )
      (pin no_connect line (at 10.16 7.62 180) (length 2.54) hide
        (name "NC" (effects (font (size 1.27 1.27))))
        (number "13" (effects (font (size 1.27 1.27))))
      )
      (pin no_connect line (at 10.16 5.08 180) (length 2.54) hide
        (name "NC" (effects (font (size 1.27 1.27))))
        (number "14" (effects (font (size 1.27 1.27))))
      )
      (pin no_connect line (at 10.16 2.54 180) (length 2.54) hide
        (name "NC" (effects (font (size 1.27 1.27))))
        (number "15" (effects (font (size 1.27 1.27))))
      )
      (pin no_connect line (at 10.16 -2.54 180) (length 2.54) hide
        (name "NC" (effects (font (size 1.27 1.27))))
        (number "16" (effects (font (size 1.27 1.27))))
      )
      (pin power_in line (at 0 -15.24 90) (length 2.54)
        (name "GND" (effects (font (size 1.27 1.27))))
        (number "18" (effects (font (size 1.27 1.27))))
      )
      (pin input line (at -12.7 5.08 0) (length 2.54)
        (name "RFIN" (effects (font (size 1.27 1.27))))
        (number "19" (effects (font (size 1.27 1.27))))
      )
      (pin no_connect line (at -10.16 7.62 0) (length 2.54) hide
        (name "NC" (effects (font (size 1.27 1.27))))
        (number "2" (effects (font (size 1.27 1.27))))
      )
      (pin passive line (at 0 -15.24 90) (length 2.54) hide
        (name "GND" (effects (font (size 1.27 1.27))))
        (number "20" (effects (font (size 1.27 1.27))))
      )
      (pin passive line (at 0 -15.24 90) (length 2.54) hide
        (name "GND" (effects (font (size 1.27 1.27))))
        (number "21" (effects (font (size 1.27 1.27))))
      )
      (pin passive line (at 0 -15.24 90) (length 2.54) hide
        (name "GND" (effects (font (size 1.27 1.27))))
        (number "22" (effects (font (size 1.27 1.27))))
      )
      (pin output line (at 12.7 0 180) (length 2.54)
        (name "1PPS" (effects (font (size 1.27 1.27))))
        (number "3" (effects (font (size 1.27 1.27))))
      )
      (pin output line (at -12.7 -7.62 0) (length 2.54)
        (name "TX" (effects (font (size 1.27 1.27))))
        (number "4" (effects (font (size 1.27 1.27))))
      )
      (pin input line (at -12.7 -5.08 0) (length 2.54)
        (name "RX" (effects (font (size 1.27 1.27))))
        (number "5" (effects (font (size 1.27 1.27))))
      )
      (pin no_connect line (at -10.16 0 0) (length 2.54) hide
        (name "NC" (effects (font (size 1.27 1.27))))
        (number "6" (effects (font (size 1.27 1.27))))
      )
      (pin no_connect line (at -10.16 -2.54 0) (length 2.54) hide
        (name "NC" (effects (font (size 1.27 1.27))))
        (number "7" (effects (font (size 1.27 1.27))))
      )
      (pin input line (at -12.7 2.54 0) (length 2.54)
        (name "~RESET" (effects (font (size 1.27 1.27))))
        (number "8" (effects (font (size 1.27 1.27))))
      )
      (pin no_connect line (at -10.16 -10.16 0) (length 2.54) hide
        (name "NC" (effects (font (size 1.27 1.27))))
        (number "9" (effects (font (size 1.27 1.27))))
      )
    )
  )
  (symbol "RF_GPS:RXM-GPS-FM" (extends "RXM-GPS-RM")
    (property "Reference" "U" (id 0) (at -7.62 13.97 0)
      (effects (font (size 1.27 1.27)) (justify right))
    )
    (property "Value" "RXM-GPS-FM" (id 1) (at 17.78 13.97 0)
      (effects (font (size 1.27 1.27)) (justify right))
    )
    (property "Footprint" "RF_GPS:Linx_RXM-GPS" (id 2) (at 12.7 -13.97 0)
      (effects (font (size 1.27 1.27)) hide)
    )
    (property "Datasheet" "https://linxtechnologies.com/wp/wp-content/uploads/rxm-gps-fm.pdf" (id 3) (at 7.62 -7.62 0)
      (effects (font (size 1.27 1.27)) hide)
    )
    (property "ki_keywords" "gps low-power" (id 4) (at 0 0 0)
      (effects (font (size 1.27 1.27)) hide)
    )
    (property "ki_description" "Module GPS Low Power, 14mA tracking, 22 channels" (id 5) (at 0 0 0)
      (effects (font (size 1.27 1.27)) hide)
    )
    (property "ki_fp_filters" "Linx*RXM?GPS*" (id 6) (at 0 0 0)
      (effects (font (size 1.27 1.27)) hide)
    )
  )
  (symbol "RF_GPS:SIM28ML" (in_bom yes) (on_board yes)
    (property "Reference" "U" (id 0) (at -13.97 13.97 0)
      (effects (font (size 1.27 1.27)))
    )
    (property "Value" "SIM28ML" (id 1) (at 11.43 13.97 0)
      (effects (font (size 1.27 1.27)))
    )
    (property "Footprint" "RF_GPS:SIM28ML" (id 2) (at 0 0 0)
      (effects (font (size 1.27 1.27)) hide)
    )
    (property "Datasheet" "https://simcom.ee/documents/SIM28ML/SIM28ML_Hardware%20Design_V1.01.pdf" (id 3) (at 0 0 0)
      (effects (font (size 1.27 1.27)) hide)
    )
    (property "ki_keywords" "GPS A-GPS receiver" (id 4) (at 0 0 0)
      (effects (font (size 1.27 1.27)) hide)
    )
    (property "ki_description" "Standalone GPS/A-GPS receiver module, built-in LNA, -165dBm sensitivity, 2.8-4.3V, SMD" (id 5) (at 0 0 0)
      (effects (font (size 1.27 1.27)) hide)
    )
    (property "ki_fp_filters" "SIM28ML*" (id 6) (at 0 0 0)
      (effects (font (size 1.27 1.27)) hide)
    )
    (symbol "SIM28ML_0_1"
      (rectangle (start -15.24 12.7) (end 15.24 -12.7)
        (stroke (width 0.254)) (fill (type background))
      )
    )
    (symbol "SIM28ML_1_1"
      (pin power_in line (at 0 -15.24 90) (length 2.54)
        (name "GND" (effects (font (size 1.27 1.27))))
        (number "1" (effects (font (size 1.27 1.27))))
      )
      (pin passive line (at 0 -15.24 90) (length 2.54) hide
        (name "GND" (effects (font (size 1.27 1.27))))
        (number "10" (effects (font (size 1.27 1.27))))
      )
      (pin input line (at 17.78 2.54 180) (length 2.54)
        (name "RF_IN" (effects (font (size 1.27 1.27))))
        (number "11" (effects (font (size 1.27 1.27))))
      )
      (pin passive line (at 0 -15.24 90) (length 2.54) hide
        (name "GND" (effects (font (size 1.27 1.27))))
        (number "12" (effects (font (size 1.27 1.27))))
      )
      (pin power_out line (at 17.78 5.08 180) (length 2.54)
        (name "ANTON" (effects (font (size 1.27 1.27))))
        (number "13" (effects (font (size 1.27 1.27))))
      )
      (pin power_out line (at 5.08 15.24 270) (length 2.54)
        (name "Vcc_RF" (effects (font (size 1.27 1.27))))
        (number "14" (effects (font (size 1.27 1.27))))
      )
      (pin no_connect line (at 15.24 -7.62 180) (length 2.54) hide
        (name "NC" (effects (font (size 1.27 1.27))))
        (number "15" (effects (font (size 1.27 1.27))))
      )
      (pin bidirectional line (at -17.78 2.54 0) (length 2.54)
        (name "TXD1/SDA" (effects (font (size 1.27 1.27))))
        (number "16" (effects (font (size 1.27 1.27))))
      )
      (pin input line (at -17.78 0 0) (length 2.54)
        (name "RXD1/SCL" (effects (font (size 1.27 1.27))))
        (number "17" (effects (font (size 1.27 1.27))))
      )
      (pin no_connect line (at 15.24 -10.16 180) (length 2.54) hide
        (name "NC" (effects (font (size 1.27 1.27))))
        (number "18" (effects (font (size 1.27 1.27))))
      )
      (pin output line (at -17.78 7.62 0) (length 2.54)
        (name "TXD0" (effects (font (size 1.27 1.27))))
        (number "2" (effects (font (size 1.27 1.27))))
      )
      (pin input line (at -17.78 5.08 0) (length 2.54)
        (name "RXD0" (effects (font (size 1.27 1.27))))
        (number "3" (effects (font (size 1.27 1.27))))
      )
      (pin output line (at 17.78 -2.54 180) (length 2.54)
        (name "TIMEMARK" (effects (font (size 1.27 1.27))))
        (number "4" (effects (font (size 1.27 1.27))))
      )
      (pin input line (at -17.78 -10.16 0) (length 2.54)
        (name "EXTINT" (effects (font (size 1.27 1.27))))
        (number "5" (effects (font (size 1.27 1.27))))
      )
      (pin power_in line (at 0 15.24 270) (length 2.54)
        (name "V_BACKUP" (effects (font (size 1.27 1.27))))
        (number "6" (effects (font (size 1.27 1.27))))
      )
      (pin no_connect line (at 15.24 -5.08 180) (length 2.54) hide
        (name "NC" (effects (font (size 1.27 1.27))))
        (number "7" (effects (font (size 1.27 1.27))))
      )
      (pin power_in line (at -2.54 15.24 270) (length 2.54)
        (name "Vcc" (effects (font (size 1.27 1.27))))
        (number "8" (effects (font (size 1.27 1.27))))
      )
      (pin input line (at -17.78 -7.62 0) (length 2.54)
        (name "~RESET" (effects (font (size 1.27 1.27))))
        (number "9" (effects (font (size 1.27 1.27))))
      )
    )
  )
  (symbol "RF_GPS:ZED-F9P" (in_bom yes) (on_board yes)
    (property "Reference" "U" (id 0) (at -13.97 26.67 0)
      (effects (font (size 1.27 1.27)))
    )
    (property "Value" "ZED-F9P" (id 1) (at 11.43 26.67 0)
      (effects (font (size 1.27 1.27)))
    )
    (property "Footprint" "RF_GPS:ublox_ZED" (id 2) (at 0 -39.37 0)
      (effects (font (size 1.27 1.27)) hide)
    )
    (property "Datasheet" "https://www.u-blox.com/sites/default/files/ZED-F9P_DataSheet_%28UBX-17051259%29.pdf" (id 3) (at -15.24 -10.16 0)
      (effects (font (size 1.27 1.27)) hide)
    )
    (property "ki_keywords" "u-blox GNSS multi-band RTK" (id 4) (at 0 0 0)
      (effects (font (size 1.27 1.27)) hide)
    )
    (property "ki_description" "GNSS Module ZED F9, VCC 2.7V to 3.6V, LGA-54" (id 5) (at 0 0 0)
      (effects (font (size 1.27 1.27)) hide)
    )
    (property "ki_fp_filters" "ublox*ZED*" (id 6) (at 0 0 0)
      (effects (font (size 1.27 1.27)) hide)
    )
    (symbol "ZED-F9P_0_1"
      (rectangle (start -15.24 25.4) (end 15.24 -25.4)
        (stroke (width 0.254)) (fill (type background))
      )
    )
    (symbol "ZED-F9P_1_1"
      (pin passive line (at 0 -27.94 90) (length 2.54) hide
        (name "GND" (effects (font (size 1.27 1.27))))
        (number "1" (effects (font (size 1.27 1.27))))
      )
      (pin no_connect line (at -15.24 7.62 0) (length 2.54) hide
        (name "Reserved" (effects (font (size 1.27 1.27))))
        (number "10" (effects (font (size 1.27 1.27))))
      )
      (pin no_connect line (at -15.24 0 0) (length 2.54) hide
        (name "Reserved" (effects (font (size 1.27 1.27))))
        (number "11" (effects (font (size 1.27 1.27))))
      )
      (pin passive line (at 0 -27.94 90) (length 2.54) hide
        (name "GND" (effects (font (size 1.27 1.27))))
        (number "12" (effects (font (size 1.27 1.27))))
      )
      (pin no_connect line (at -15.24 -7.62 0) (length 2.54) hide
        (name "Reserved" (effects (font (size 1.27 1.27))))
        (number "13" (effects (font (size 1.27 1.27))))
      )
      (pin passive line (at 0 -27.94 90) (length 2.54) hide
        (name "GND" (effects (font (size 1.27 1.27))))
        (number "14" (effects (font (size 1.27 1.27))))
      )
      (pin no_connect line (at -15.24 -12.7 0) (length 2.54) hide
        (name "Reserved" (effects (font (size 1.27 1.27))))
        (number "15" (effects (font (size 1.27 1.27))))
      )
      (pin no_connect line (at -7.62 -25.4 90) (length 2.54) hide
        (name "Reserved" (effects (font (size 1.27 1.27))))
        (number "16" (effects (font (size 1.27 1.27))))
      )
      (pin no_connect line (at -5.08 -25.4 90) (length 2.54) hide
        (name "Reserved" (effects (font (size 1.27 1.27))))
        (number "17" (effects (font (size 1.27 1.27))))
      )
      (pin no_connect line (at -2.54 -25.4 90) (length 2.54) hide
        (name "Reserved" (effects (font (size 1.27 1.27))))
        (number "18" (effects (font (size 1.27 1.27))))
      )
      (pin output line (at 17.78 -15.24 180) (length 2.54)
        (name "GEOFENCE_STAT" (effects (font (size 1.27 1.27))))
        (number "19" (effects (font (size 1.27 1.27))))
      )
      (pin input line (at 17.78 5.08 180) (length 2.54)
        (name "RF_IN" (effects (font (size 1.27 1.27))))
        (number "2" (effects (font (size 1.27 1.27))))
      )
      (pin output line (at 17.78 -12.7 180) (length 2.54)
        (name "RTK_STAT" (effects (font (size 1.27 1.27))))
        (number "20" (effects (font (size 1.27 1.27))))
      )
      (pin no_connect line (at 2.54 -25.4 90) (length 2.54) hide
        (name "Reserved" (effects (font (size 1.27 1.27))))
        (number "21" (effects (font (size 1.27 1.27))))
      )
      (pin no_connect line (at 5.08 -25.4 90) (length 2.54) hide
        (name "Reserved" (effects (font (size 1.27 1.27))))
        (number "22" (effects (font (size 1.27 1.27))))
      )
      (pin no_connect line (at 7.62 -25.4 90) (length 2.54) hide
        (name "Reserved" (effects (font (size 1.27 1.27))))
        (number "23" (effects (font (size 1.27 1.27))))
      )
      (pin no_connect line (at 15.24 -7.62 180) (length 2.54) hide
        (name "Reserved" (effects (font (size 1.27 1.27))))
        (number "24" (effects (font (size 1.27 1.27))))
      )
      (pin no_connect line (at 15.24 -5.08 180) (length 2.54) hide
        (name "Reserved" (effects (font (size 1.27 1.27))))
        (number "25" (effects (font (size 1.27 1.27))))
      )
      (pin input line (at -17.78 2.54 0) (length 2.54)
        (name "RXD2" (effects (font (size 1.27 1.27))))
        (number "26" (effects (font (size 1.27 1.27))))
      )
      (pin output line (at -17.78 5.08 0) (length 2.54)
        (name "TXD2" (effects (font (size 1.27 1.27))))
        (number "27" (effects (font (size 1.27 1.27))))
      )
      (pin no_connect line (at 15.24 -2.54 180) (length 2.54) hide
        (name "Reserved" (effects (font (size 1.27 1.27))))
        (number "28" (effects (font (size 1.27 1.27))))
      )
      (pin no_connect line (at 15.24 0 180) (length 2.54) hide
        (name "Reserved" (effects (font (size 1.27 1.27))))
        (number "29" (effects (font (size 1.27 1.27))))
      )
      (pin passive line (at 0 -27.94 90) (length 2.54) hide
        (name "GND" (effects (font (size 1.27 1.27))))
        (number "3" (effects (font (size 1.27 1.27))))
      )
      (pin no_connect line (at 15.24 2.54 180) (length 2.54) hide
        (name "Reserved" (effects (font (size 1.27 1.27))))
        (number "30" (effects (font (size 1.27 1.27))))
      )
      (pin no_connect line (at 15.24 7.62 180) (length 2.54) hide
        (name "Reserved" (effects (font (size 1.27 1.27))))
        (number "31" (effects (font (size 1.27 1.27))))
      )
      (pin passive line (at 0 -27.94 90) (length 2.54) hide
        (name "GND" (effects (font (size 1.27 1.27))))
        (number "32" (effects (font (size 1.27 1.27))))
      )
      (pin passive line (at -5.08 27.94 270) (length 2.54) hide
        (name "VCC" (effects (font (size 1.27 1.27))))
        (number "33" (effects (font (size 1.27 1.27))))
      )
      (pin power_in line (at -5.08 27.94 270) (length 2.54)
        (name "VCC" (effects (font (size 1.27 1.27))))
        (number "34" (effects (font (size 1.27 1.27))))
      )
      (pin no_connect line (at 15.24 17.78 180) (length 2.54) hide
        (name "Reserved" (effects (font (size 1.27 1.27))))
        (number "35" (effects (font (size 1.27 1.27))))
      )
      (pin power_in line (at -2.54 27.94 270) (length 2.54)
        (name "V_BCKP" (effects (font (size 1.27 1.27))))
        (number "36" (effects (font (size 1.27 1.27))))
      )
      (pin passive line (at 0 -27.94 90) (length 2.54) hide
        (name "GND" (effects (font (size 1.27 1.27))))
        (number "37" (effects (font (size 1.27 1.27))))
      )
      (pin power_in line (at 0 27.94 270) (length 2.54)
        (name "V_USB" (effects (font (size 1.27 1.27))))
        (number "38" (effects (font (size 1.27 1.27))))
      )
      (pin bidirectional line (at -17.78 20.32 0) (length 2.54)
        (name "USB_DM" (effects (font (size 1.27 1.27))))
        (number "39" (effects (font (size 1.27 1.27))))
      )
      (pin input line (at 17.78 12.7 180) (length 2.54)
        (name "ANT_DETECT" (effects (font (size 1.27 1.27))))
        (number "4" (effects (font (size 1.27 1.27))))
      )
      (pin bidirectional line (at -17.78 17.78 0) (length 2.54)
        (name "USB_DP" (effects (font (size 1.27 1.27))))
        (number "40" (effects (font (size 1.27 1.27))))
      )
      (pin passive line (at 0 -27.94 90) (length 2.54) hide
        (name "GND" (effects (font (size 1.27 1.27))))
        (number "41" (effects (font (size 1.27 1.27))))
      )
      (pin output line (at -17.78 12.7 0) (length 2.54)
        (name "TXD/SPI_MISO" (effects (font (size 1.27 1.27))))
        (number "42" (effects (font (size 1.27 1.27))))
      )
      (pin input line (at -17.78 10.16 0) (length 2.54)
        (name "RXD/SPI_MOSI" (effects (font (size 1.27 1.27))))
        (number "43" (effects (font (size 1.27 1.27))))
      )
      (pin bidirectional line (at -17.78 -2.54 0) (length 2.54)
        (name "SDA/~SPI_CS" (effects (font (size 1.27 1.27))))
        (number "44" (effects (font (size 1.27 1.27))))
      )
      (pin bidirectional line (at -17.78 -5.08 0) (length 2.54)
        (name "SCL/SPI_CLK" (effects (font (size 1.27 1.27))))
        (number "45" (effects (font (size 1.27 1.27))))
      )
      (pin output line (at 17.78 -17.78 180) (length 2.54)
        (name "TX_READY" (effects (font (size 1.27 1.27))))
        (number "46" (effects (font (size 1.27 1.27))))
      )
      (pin input line (at -17.78 -20.32 0) (length 2.54)
        (name "D_SEL" (effects (font (size 1.27 1.27))))
        (number "47" (effects (font (size 1.27 1.27))))
      )
      (pin power_in line (at 0 -27.94 90) (length 2.54)
        (name "GND" (effects (font (size 1.27 1.27))))
        (number "48" (effects (font (size 1.27 1.27))))
      )
      (pin input line (at -17.78 -17.78 0) (length 2.54)
        (name "~RESET" (effects (font (size 1.27 1.27))))
        (number "49" (effects (font (size 1.27 1.27))))
      )
      (pin output line (at 17.78 15.24 180) (length 2.54)
        (name "ANT_OFF" (effects (font (size 1.27 1.27))))
        (number "5" (effects (font (size 1.27 1.27))))
      )
      (pin input line (at -17.78 -15.24 0) (length 2.54)
        (name "~SAFEBOOT" (effects (font (size 1.27 1.27))))
        (number "50" (effects (font (size 1.27 1.27))))
      )
      (pin input line (at -17.78 -10.16 0) (length 2.54)
        (name "EXTINT" (effects (font (size 1.27 1.27))))
        (number "51" (effects (font (size 1.27 1.27))))
      )
      (pin no_connect line (at 15.24 20.32 180) (length 2.54) hide
        (name "Reserved" (effects (font (size 1.27 1.27))))
        (number "52" (effects (font (size 1.27 1.27))))
      )
      (pin output line (at 17.78 -10.16 180) (length 2.54)
        (name "TIMEPULSE" (effects (font (size 1.27 1.27))))
        (number "53" (effects (font (size 1.27 1.27))))
      )
      (pin no_connect line (at 15.24 22.86 180) (length 2.54) hide
        (name "Reserved" (effects (font (size 1.27 1.27))))
        (number "54" (effects (font (size 1.27 1.27))))
      )
      (pin passive line (at 0 -27.94 90) (length 2.54) hide
        (name "GND" (effects (font (size 1.27 1.27))))
        (number "55" (effects (font (size 1.27 1.27))))
      )
      (pin input line (at 17.78 10.16 180) (length 2.54)
        (name "~ANT_SHORT" (effects (font (size 1.27 1.27))))
        (number "6" (effects (font (size 1.27 1.27))))
      )
      (pin power_out line (at 5.08 27.94 270) (length 2.54)
        (name "VCC_RF" (effects (font (size 1.27 1.27))))
        (number "7" (effects (font (size 1.27 1.27))))
      )
      (pin no_connect line (at -15.24 22.86 0) (length 2.54) hide
        (name "Reserved" (effects (font (size 1.27 1.27))))
        (number "8" (effects (font (size 1.27 1.27))))
      )
      (pin no_connect line (at -15.24 15.24 0) (length 2.54) hide
        (name "Reserved" (effects (font (size 1.27 1.27))))
        (number "9" (effects (font (size 1.27 1.27))))
      )
    )
  )
  (symbol "RF_GPS:ublox_SAM-M8Q" (in_bom yes) (on_board yes)
    (property "Reference" "U" (id 0) (at -8.89 11.43 0)
      (effects (font (size 1.27 1.27)))
    )
    (property "Value" "ublox_SAM-M8Q" (id 1) (at 11.43 11.43 0)
      (effects (font (size 1.27 1.27)))
    )
    (property "Footprint" "RF_GPS:ublox_SAM-M8Q" (id 2) (at 12.7 -11.43 0)
      (effects (font (size 1.27 1.27)) hide)
    )
    (property "Datasheet" "https://www.u-blox.com/sites/default/files/SAM-M8Q_DataSheet_%28UBX-16012619%29.pdf" (id 3) (at 0 0 0)
      (effects (font (size 1.27 1.27)) hide)
    )
    (property "ki_keywords" "gps module with antenna" (id 4) (at 0 0 0)
      (effects (font (size 1.27 1.27)) hide)
    )
    (property "ki_description" "GPS ublox M8 variant" (id 5) (at 0 0 0)
      (effects (font (size 1.27 1.27)) hide)
    )
    (property "ki_fp_filters" "ublox*SAM?M8Q*" (id 6) (at 0 0 0)
      (effects (font (size 1.27 1.27)) hide)
    )
    (symbol "ublox_SAM-M8Q_0_1"
      (rectangle (start -10.16 10.16) (end 10.16 -10.16)
        (stroke (width 0.254)) (fill (type background))
      )
    )
    (symbol "ublox_SAM-M8Q_1_1"
      (pin power_in line (at 0 -12.7 90) (length 2.54)
        (name "GND" (effects (font (size 1.27 1.27))))
        (number "1" (effects (font (size 1.27 1.27))))
      )
      (pin passive line (at 0 -12.7 90) (length 2.54) hide
        (name "GND" (effects (font (size 1.27 1.27))))
        (number "10" (effects (font (size 1.27 1.27))))
      )
      (pin passive line (at 0 -12.7 90) (length 2.54) hide
        (name "GND" (effects (font (size 1.27 1.27))))
        (number "11" (effects (font (size 1.27 1.27))))
      )
      (pin input line (at 12.7 -5.08 180) (length 2.54)
        (name "SCL" (effects (font (size 1.27 1.27))))
        (number "12" (effects (font (size 1.27 1.27))))
      )
      (pin output line (at 12.7 2.54 180) (length 2.54)
        (name "TXD" (effects (font (size 1.27 1.27))))
        (number "13" (effects (font (size 1.27 1.27))))
      )
      (pin input line (at 12.7 5.08 180) (length 2.54)
        (name "RXD" (effects (font (size 1.27 1.27))))
        (number "14" (effects (font (size 1.27 1.27))))
      )
      (pin passive line (at 0 -12.7 90) (length 2.54) hide
        (name "GND" (effects (font (size 1.27 1.27))))
        (number "15" (effects (font (size 1.27 1.27))))
      )
      (pin passive line (at 0 -12.7 90) (length 2.54) hide
        (name "GND" (effects (font (size 1.27 1.27))))
        (number "16" (effects (font (size 1.27 1.27))))
      )
      (pin power_in line (at -2.54 12.7 270) (length 2.54)
        (name "VCC" (effects (font (size 1.27 1.27))))
        (number "17" (effects (font (size 1.27 1.27))))
      )
      (pin input line (at -12.7 -5.08 0) (length 2.54)
        (name "~RESET" (effects (font (size 1.27 1.27))))
        (number "18" (effects (font (size 1.27 1.27))))
      )
      (pin input line (at -12.7 2.54 0) (length 2.54)
        (name "EXTINT" (effects (font (size 1.27 1.27))))
        (number "19" (effects (font (size 1.27 1.27))))
      )
      (pin power_in line (at 0 12.7 270) (length 2.54)
        (name "VCC_IO" (effects (font (size 1.27 1.27))))
        (number "2" (effects (font (size 1.27 1.27))))
      )
      (pin passive line (at 0 -12.7 90) (length 2.54) hide
        (name "GND" (effects (font (size 1.27 1.27))))
        (number "20" (effects (font (size 1.27 1.27))))
      )
      (pin power_in line (at 2.54 12.7 270) (length 2.54)
        (name "V_BCKP" (effects (font (size 1.27 1.27))))
        (number "3" (effects (font (size 1.27 1.27))))
      )
      (pin passive line (at 0 -12.7 90) (length 2.54) hide
        (name "GND" (effects (font (size 1.27 1.27))))
        (number "4" (effects (font (size 1.27 1.27))))
      )
      (pin passive line (at 0 -12.7 90) (length 2.54) hide
        (name "GND" (effects (font (size 1.27 1.27))))
        (number "5" (effects (font (size 1.27 1.27))))
      )
      (pin passive line (at 0 -12.7 90) (length 2.54) hide
        (name "GND" (effects (font (size 1.27 1.27))))
        (number "6" (effects (font (size 1.27 1.27))))
      )
      (pin output line (at -12.7 0 0) (length 2.54)
        (name "TIMEPULSE" (effects (font (size 1.27 1.27))))
        (number "7" (effects (font (size 1.27 1.27))))
      )
      (pin input line (at -12.7 -2.54 0) (length 2.54)
        (name "~SAFEBOOT" (effects (font (size 1.27 1.27))))
        (number "8" (effects (font (size 1.27 1.27))))
      )
      (pin bidirectional line (at 12.7 -2.54 180) (length 2.54)
        (name "SDA" (effects (font (size 1.27 1.27))))
        (number "9" (effects (font (size 1.27 1.27))))
      )
    )
  )
)
